<?xml version="1.0" encoding="utf-8"?>
<!-- Generator: Adobe Illustrator 25.4.1, SVG Export Plug-In . SVG Version: 6.00 Build 0)  -->
<svg version="1.1" id="Layer_1" xmlns="http://www.w3.org/2000/svg" xmlns:xlink="http://www.w3.org/1999/xlink" x="0px" y="0px"
	 viewBox="0 0 48 17" style="enable-background:new 0 0 48 17;" xml:space="preserve">
<style type="text/css">
	.st0{fill:none;stroke:#0076D6;stroke-width:3;stroke-linecap:square;stroke-miterlimit:10;}
</style>
<line class="st0" x1="1.5" y1="1.5" x2="46.5" y2="1.5"/>
<line class="st0" x1="1.5" y1="8.5" x2="46.5" y2="8.5"/>
<line class="st0" x1="1.5" y1="15.5" x2="46.5" y2="15.5"/>
</svg>
