<?xml version="1.0" encoding="utf-8"?>
<!-- Generator: Adobe Illustrator 25.4.1, SVG Export Plug-In . SVG Version: 6.00 Build 0)  -->
<svg version="1.1" id="Layer_1" xmlns="http://www.w3.org/2000/svg" xmlns:xlink="http://www.w3.org/1999/xlink" x="0px" y="0px"
	 viewBox="0 0 178 120" style="enable-background:new 0 0 178 120;" xml:space="preserve">
<style type="text/css">
	.st0{fill-rule:evenodd;clip-rule:evenodd;fill:#FFFFFF;}
	.st1{fill:#FFFFFF;}
</style>
<path class="st0" d="M110.8,111.1H68.2c-0.7,0-1.3,1-1.3,2.3l-7.9,5.2c0,0.7,0.8,1.3,1.8,1.3h57.5c1,0,1.8-0.6,1.8-1.3l-7.9-5.2
	C112.1,112.2,111.5,111.1,110.8,111.1"/>
<path class="st0" d="M174.5,0H3.6C1.6,0,0,1.6,0,3.6v96.1c0,2,1.6,3.6,3.6,3.6h170.9c2,0,3.6-1.6,3.6-3.6V3.6
	C178,1.6,176.4,0,174.5,0z M170.2,96.4H7.9V6.9h162.3V96.4z"/>
<rect x="66.9" y="101.3" class="st1" width="45.2" height="13.8"/>
</svg>
